%YAML 1.1
%TAG !u! tag:unity3d.com,2011:
--- !u!114 &11400000
MonoBehaviour:
  m_ObjectHideFlags: 0
  m_CorrespondingSourceObject: {fileID: 0}
  m_PrefabInstance: {fileID: 0}
  m_PrefabAsset: {fileID: 0}
  m_GameObject: {fileID: 0}
  m_Enabled: 1
  m_EditorHideFlags: 0
  m_Script: {fileID: 11500000, guid: 4f11136daadff0b44ac2278a314682ab, type: 3}
  m_Name: MoveBish
  m_EditorClassIdentifier: 
  serializedUdonProgramAsset: {fileID: 11400000, guid: 42c77db29cc73cd498fde8dcb7207166,
    type: 2}
  udonAssembly: ".data_start\r\n\r\n    \r\n    instance_0: %UnityEngineTransform,
    this\r\n    value_0: %UnityEngineVector3, null\r\n    Single_0: %SystemSingle,
    null\r\n    Single_1: %SystemSingle, null\r\n    Single_2: %SystemSingle, null\r\n
    \   Vector3_0: %UnityEngineVector3, null\r\n    Vector3_1: %UnityEngineVector3,
    null\r\n    instance_1: %UnityEngineTransform, this\r\n    Single_3: %SystemSingle,
    null\r\n    Single_4: %SystemSingle, null\r\n    Single_5: %SystemSingle, null\r\n
    \   Single_6: %SystemSingle, null\r\n    Single_7: %SystemSingle, null\r\n    Single_8:
    %SystemSingle, null\r\n    f_0: %SystemSingle, null\r\n\r\n.data_end\r\n\r\n.code_start\r\n\r\n
    \   .export _update\r\n    \r\n    _update:\r\n    \r\n        PUSH, instance_1\r\n
    \       PUSH, Vector3_0\r\n        EXTERN, \"UnityEngineTransform.__get_position__UnityEngineVector3\"\r\n
    \       PUSH, Vector3_0\r\n        PUSH, Single_0\r\n        EXTERN, \"UnityEngineVector3.__get_x__SystemSingle\"\r\n
    \       PUSH, Vector3_0\r\n        PUSH, Vector3_1\r\n        COPY\r\n        PUSH,
    Vector3_0\r\n        PUSH, Single_1\r\n        EXTERN, \"UnityEngineVector3.__get_y__SystemSingle\"\r\n
    \       PUSH, f_0\r\n        EXTERN, \"UnityEngineTime.__get_time__SystemSingle\"\r\n
    \       PUSH, f_0\r\n        PUSH, Single_7\r\n        EXTERN, \"UnityEngineMathf.__Sin__SystemSingle__SystemSingle\"\r\n
    \       PUSH, Single_7\r\n        PUSH, Single_8\r\n        PUSH, Single_5\r\n
    \       EXTERN, \"SystemSingle.__op_Addition__SystemSingle_SystemSingle__SystemSingle\"\r\n
    \       PUSH, Single_5\r\n        PUSH, Single_6\r\n        PUSH, Single_3\r\n
    \       EXTERN, \"SystemSingle.__op_Division__SystemSingle_SystemSingle__SystemSingle\"\r\n
    \       PUSH, Single_3\r\n        PUSH, Single_4\r\n        PUSH, Single_2\r\n
    \       EXTERN, \"SystemSingle.__op_Multiplication__SystemSingle_SystemSingle__SystemSingle\"\r\n
    \       PUSH, Single_0\r\n        PUSH, Single_1\r\n        PUSH, Single_2\r\n
    \       PUSH, value_0\r\n        EXTERN, \"UnityEngineVector3.__ctor__SystemSingle_SystemSingle_SystemSingle__UnityEngineVector3\"\r\n
    \       PUSH, instance_0\r\n        PUSH, value_0\r\n        EXTERN, \"UnityEngineTransform.__set_position__UnityEngineVector3__SystemVoid\"\r\n
    \       JUMP, 0xFFFFFFFC\r\n    \r\n\r\n.code_end\r\n"
  assemblyError: 
  graphData:
    name: 
    description: 
    nodes:
    - fullName: Event_Update
      uid: b31541d2-f08e-43a1-b36a-e52cb9008627
      position: {x: 475.7284, y: -67.40277}
      nodeUIDs: []
      flowUIDs:
      - 1df7bd01-2737-4f28-a656-e8a666f2b562
      nodeValues: []
    - fullName: UnityEngineTransform.__set_position__UnityEngineVector3__SystemVoid
      uid: 1df7bd01-2737-4f28-a656-e8a666f2b562
      position: {x: 990.541, y: -65.36281}
      nodeUIDs:
      - 
      - 3fe73e1c-8108-4f8c-9979-7039dc70f318|0
      flowUIDs: []
      nodeValues:
      - unityObjectValue: {fileID: 0}
        stringValue: 
      - unityObjectValue: {fileID: 0}
        stringValue: UnityEngine.Vector3, UnityEngine.CoreModule, Version=0.0.0.0,
          Culture=neutral, PublicKeyToken=null|{"x":0.0,"y":0.0,"z":0.0}
    - fullName: UnityEngineTime.__get_time__SystemSingle
      uid: 6351b6ff-ad0a-4f6a-bb0b-b60b863afe49
      position: {x: -74.566376, y: 310.07983}
      nodeUIDs: []
      flowUIDs: []
      nodeValues: []
    - fullName: UnityEngineMathf.__Sin__SystemSingle__SystemSingle
      uid: 19a60bcb-fddc-45d0-bd49-c977fdad7765
      position: {x: 69.70099, y: 310.25238}
      nodeUIDs:
      - 6351b6ff-ad0a-4f6a-bb0b-b60b863afe49|0
      flowUIDs: []
      nodeValues:
      - unityObjectValue: {fileID: 0}
        stringValue: System.Single, mscorlib, Version=4.0.0.0, Culture=neutral, PublicKeyToken=b77a5c561934e089|0
    - fullName: SystemSingle.__op_Addition__SystemSingle_SystemSingle__SystemSingle
      uid: e34405a3-1e03-44f0-a429-bfb53f8c4927
      position: {x: 225.62476, y: 310.03262}
      nodeUIDs:
      - 19a60bcb-fddc-45d0-bd49-c977fdad7765|0
      - 
      flowUIDs: []
      nodeValues:
      - unityObjectValue: {fileID: 0}
        stringValue: System.Single, mscorlib, Version=4.0.0.0, Culture=neutral, PublicKeyToken=b77a5c561934e089|0
      - unityObjectValue: {fileID: 0}
        stringValue: System.Single, mscorlib, Version=4.0.0.0, Culture=neutral, PublicKeyToken=b77a5c561934e089|1
    - fullName: SystemSingle.__op_Division__SystemSingle_SystemSingle__SystemSingle
      uid: 817e296e-1a25-469a-b8ad-40b0a24068ac
      position: {x: 373.74472, y: 310.03262}
      nodeUIDs:
      - e34405a3-1e03-44f0-a429-bfb53f8c4927|0
      - 
      flowUIDs: []
      nodeValues:
      - unityObjectValue: {fileID: 0}
        stringValue: System.Single, mscorlib, Version=4.0.0.0, Culture=neutral, PublicKeyToken=b77a5c561934e089|0
      - unityObjectValue: {fileID: 0}
        stringValue: System.Single, mscorlib, Version=4.0.0.0, Culture=neutral, PublicKeyToken=b77a5c561934e089|2
    - fullName: SystemSingle.__op_Multiplication__SystemSingle_SystemSingle__SystemSingle
      uid: 1007b9c3-831e-4955-8235-5a037d34f586
      position: {x: 540.82056, y: 230.91838}
      nodeUIDs:
      - 817e296e-1a25-469a-b8ad-40b0a24068ac|0
      - 
      flowUIDs: []
      nodeValues:
      - unityObjectValue: {fileID: 0}
        stringValue: System.Single, mscorlib, Version=4.0.0.0, Culture=neutral, PublicKeyToken=b77a5c561934e089|0
      - unityObjectValue: {fileID: 0}
        stringValue: System.Single, mscorlib, Version=4.0.0.0, Culture=neutral, PublicKeyToken=b77a5c561934e089|-0.2
    - fullName: UnityEngineVector3.__ctor__SystemSingle_SystemSingle_SystemSingle__UnityEngineVector3
      uid: 3fe73e1c-8108-4f8c-9979-7039dc70f318
      position: {x: 728.4266, y: 33.298386}
      nodeUIDs:
      - 2cce2239-b3c3-45d0-8cb6-b814c794ef1e|0
      - 231fb4d4-5262-4422-8bd8-79751c83373e|0
      - 1007b9c3-831e-4955-8235-5a037d34f586|0
      flowUIDs: []
      nodeValues:
      - unityObjectValue: {fileID: 0}
        stringValue: System.Single, mscorlib, Version=4.0.0.0, Culture=neutral, PublicKeyToken=b77a5c561934e089|0
      - unityObjectValue: {fileID: 0}
        stringValue: System.Single, mscorlib, Version=4.0.0.0, Culture=neutral, PublicKeyToken=b77a5c561934e089|0
      - unityObjectValue: {fileID: 0}
        stringValue: System.Single, mscorlib, Version=4.0.0.0, Culture=neutral, PublicKeyToken=b77a5c561934e089|-0.2
    - fullName: UnityEngineTransform.__get_position__UnityEngineVector3
      uid: 34cda433-3a19-4a37-b9e9-d0c7afb00062
      position: {x: 364.42657, y: 64.298386}
      nodeUIDs:
      - 
      flowUIDs: []
      nodeValues:
      - unityObjectValue: {fileID: 0}
        stringValue: 
    - fullName: UnityEngineVector3.__get_x__SystemSingle
      uid: 2cce2239-b3c3-45d0-8cb6-b814c794ef1e
      position: {x: 542.4266, y: 32.298386}
      nodeUIDs:
      - 34cda433-3a19-4a37-b9e9-d0c7afb00062|0
      flowUIDs: []
      nodeValues:
      - unityObjectValue: {fileID: 0}
        stringValue: UnityEngine.Vector3, UnityEngine.CoreModule, Version=0.0.0.0,
          Culture=neutral, PublicKeyToken=null|{"x":0.0,"y":0.0,"z":0.0}
    - fullName: UnityEngineVector3.__get_y__SystemSingle
      uid: 231fb4d4-5262-4422-8bd8-79751c83373e
      position: {x: 541.0666, y: 126.298386}
      nodeUIDs:
      - 34cda433-3a19-4a37-b9e9-d0c7afb00062|0
      flowUIDs: []
      nodeValues:
      - unityObjectValue: {fileID: 0}
        stringValue: UnityEngine.Vector3, UnityEngine.CoreModule, Version=0.0.0.0,
          Culture=neutral, PublicKeyToken=null|{"x":0.0,"y":0.0,"z":0.0}
  graphElementData:
  - type: 5
    uid: 605f746c-801a-4724-b4e3-67e0e3d516d5
    jsonData: '{"visible":false,"layout":{"serializedVersion":"2","x":7.0,"y":22.0,"width":200.0,"height":150.0}}'
  - type: 4
    uid: d294c7b6-dc5c-4d8f-b676-06dbf69ebd0b
    jsonData: '{"visible":false,"layout":{"serializedVersion":"2","x":0.0,"y":24.0,"width":200.0,"height":100.0}}'
  viewTransform:
    position: {x: -237.06657, y: 157.70161}
    scale: 1
  version: 1.0.0
  showAssembly: 0
